{"photos":{"page":1,"pages":16,"perpage":10,"total":"155","photo":[{"id":"48013699126","owner":"126576977@N07","secret":"110f5bac5f","server":"65535","farm":66,"title":"Mohnwiese in der Vorderpfalz","ispublic":1,"isfriend":0,"isfamily":0},{"id":"48015733482","owner":"120449047@N06","secret":"08ff157591","server":"65535","farm":66,"title":"Glossy Ibis (explored 6\/7\/19)","ispublic":1,"isfriend":0,"isfamily":0},{"id":"48014582908","owner":"105175203@N04","secret":"01f8409726","server":"65535","farm":66,"title":"Kingfisher (juvenile)","ispublic":1,"isfriend":0,"isfamily":0},{"id":"48010644838","owner":"73983103@N00","secret":"776ba7a5ac","server":"65535","farm":66,"title":"Red-bellied Woodpecker","ispublic":1,"isfriend":0,"isfamily":0},{"id":"48012822956","owner":"96902505@N07","secret":"de29e15cc9","server":"65535","farm":66,"title":"Rencontre nationale USk \u00e0 Dijon 2019","ispublic":1,"isfriend":0,"isfamily":0},{"id":"48015803593","owner":"137256403@N07","secret":"626a1b0db1","server":"65535","farm":66,"title":"Puncturing Punk","ispublic":1,"isfriend":0,"isfamily":0},{"id":"48015778137","owner":"166510456@N06","secret":"61c9e393da","server":"65535","farm":66,"title":"~| Retreat from Kursk | July 1943 |~","ispublic":1,"isfriend":0,"isfamily":0},{"id":"48015969093","owner":"126356805@N02","secret":"e0a4110afd","server":"65535","farm":66,"title":"Chev\u00eache Athena","ispublic":1,"isfriend":0,"isfamily":0},{"id":"48013602557","owner":"24616031@N07","secret":"2462c16a9e","server":"65535","farm":66,"title":"ruby-throated hummingbird male","ispublic":1,"isfriend":0,"isfamily":0},{"id":"48014159277","owner":"50698411@N04","secret":"a59525fef7","server":"65535","farm":66,"title":"Brown-headed Parrot","ispublic":1,"isfriend":0,"isfamily":0}]},"stat":"ok"}
